final_R_reference
…
Finally, I will discuss the use of the subset() function. For this, I will use the penguins dataset from the package palmerpenguins. This dataset contains measurements of 3 species of penguins. For this example, we will extract the data for only the species Adelie. The first argument in the subset function is the dataframe, thus for us it is penguins. The second argument is what we want to extract and where it is located in the dataframe. For us, the species names are located in the species column. Note the use of the double equal sign (==) and the name in quotes ("). This tells the function that we want only the rows that have the word Adelie in them. We will assign this subset the nameadelie".

adelie = subset(penguins, species == "Adelie")

Now, we may only be interested in the male Adelie penguins. We can take the male subset of the dataframe we create above. We can name it mal_adel.

mal_adel = subset(adelie, sex == "male")
mal_adel

## # A tibble: 73 x 8
##    species island    bill_length_mm bill_depth_mm flipper_length_mm body_mass_g
##    <fct>   <fct>              <dbl>         <dbl>             <int>       <int>
##  1 Adelie  Torgersen           39.1          18.7               181        3750
##  2 Adelie  Torgersen           39.3          20.6               190        3650
##  3 Adelie  Torgersen           39.2          19.6               195        4675
##  4 Adelie  Torgersen           38.6          21.2               191        3800
##  5 Adelie  Torgersen           34.6          21.1               198        4400
##  6 Adelie  Torgersen           42.5          20.7               197        4500
##  7 Adelie  Torgersen           46            21.5               194        4200
##  8 Adelie  Biscoe              37.7          18.7               180        3600
##  9 Adelie  Biscoe              38.2          18.1               185        3950
## 10 Adelie  Biscoe              38.8          17.2               180        3800
## # ... with 63 more rows, and 2 more variables: sex <fct>, year <int>
…
